{
    "KPlugin": {
        "Description": "Build, parse output and run applications",
        "Description[bg]": "Изграждане, анализиране на изходни данни и стартиране на приложения",
        "Description[ca@valencia]": "Construïx, analitza l'eixida i executa aplicacions",
        "Description[ca]": "Construeix, analitza la sortida i executa aplicacions",
        "Description[cs]": "Sestavit, zpracovat výstup a spustit aplikace",
        "Description[eo]": "Konstrui, analizi eligon kaj lanĉi aplikaĵojn",
        "Description[es]": "Compilar, analizar la salida y ejecutar aplicaciones",
        "Description[eu]": "Eraikitzea, irteera aztertzea eta aplikazioak exekutatzea",
        "Description[fi]": "Koosta, jäsennä tuloste ja suorita sovellukset",
        "Description[fr]": "Compiler, analyser la sortie et exécuter des applications",
        "Description[gl]": "Construír, procesar a saída e executar aplicacións.",
        "Description[ia]": "Construe, analysa exito e exeque applicationes",
        "Description[it]": "Compila, elabora l'output ed esegui le applicazioni",
        "Description[ka]": "ააგეთ, დაამუშავეთ მიღებული ინფორმაცია და გაუშვით აპლიკაციები",
        "Description[ko]": "앱 빌드, 출력 해석, 실행",
        "Description[nl]": "Bouwen, uitvoer ontleden en toepassingen uitvoeren",
        "Description[pl]": "Buduj, przetwarzaj wyniki i uruchamiaj aplikacje",
        "Description[sl]": "Izgradi, razčleni izhod in poženi aplikacije",
        "Description[sv]": "Bygg, tolka utmatning och kör program",
        "Description[tr]": "Uygulamaları yap, çıktıyı ayrıştır ve uygulamaları çalıştır",
        "Description[uk]": "Збирає, обробляє виведені дані і запускає програми",
        "Description[x-test]": "xxBuild, parse output and run applicationsxx",
        "Description[zh_CN]": "构建，解析输出并运行应用程序",
        "Name": "Build & Run",
        "Name[bg]": "Компилиране и стартиране",
        "Name[ca@valencia]": "Construïx i executa",
        "Name[ca]": "Construeix i executa",
        "Name[cs]": "Sestavit a Spustit",
        "Name[eo]": "Konstrui & Lanĉi",
        "Name[es]": "Compilar y ejecutar",
        "Name[eu]": "Eraiki eta exekutatu",
        "Name[fi]": "Koosta ja suorita",
        "Name[fr]": "Compiler et exécuter",
        "Name[gl]": "Construír e executar",
        "Name[ia]": " Construe & Executa",
        "Name[it]": "Compila ed esegui",
        "Name[ka]": "აგება და გაშვება",
        "Name[ko]": "빌드하고 실행",
        "Name[nl]": "Bouwen & uitvoeren",
        "Name[pl]": "Zbuduj i uruchom",
        "Name[sl]": "Izgradi in poženi",
        "Name[sv]": "Bygg och kör",
        "Name[tr]": "Yap ve Çalıştır",
        "Name[uk]": "Зібрати і запустити",
        "Name[x-test]": "xxBuild & Runxx",
        "Name[zh_CN]": "构建并运行",
        "ServiceTypes": [
            "KTextEditor/Plugin"
        ]
    }
}
