{
    "KPlugin": {
        "Description": "Provides debugger integration",
        "Description[az]": "Sazlayıcının inteqrasiya olunmasını təmin edir",
        "Description[bg]": "Интеграция на програма за трасиране",
        "Description[ca@valencia]": "Proporciona la integració del depurador",
        "Description[ca]": "Proporciona la integració del depurador",
        "Description[cs]": "Poskytuje integraci ladicího programu",
        "Description[en_GB]": "Provides debugger integration",
        "Description[eo]": "Provizas integron de sencimigilo",
        "Description[es]": "Proporciona integración con el depurador",
        "Description[eu]": "Araztailearen integrazioa ematen du",
        "Description[fi]": "Tarjoaa virheenpaikannineheytyksen",
        "Description[fr]": "Fournit l'intégration du débogueur",
        "Description[gl]": "Fornece información de depuración.",
        "Description[ia]": "Forni integration de cribrator",
        "Description[it]": "Fornisce l'integrazione col debugger",
        "Description[ka]": "გამმართველის ინტეგრაცია",
        "Description[ko]": "디버거 통합 제공",
        "Description[nl]": "Biedt integratie van debugger",
        "Description[pl]": "Wplata debuggera",
        "Description[pt]": "Oferece a integração com o depurador",
        "Description[ru]": "Встроенный отладчик",
        "Description[sl]": "Zagotavlja integracijo razhroščevalnika",
        "Description[sv]": "Tillhandahåller integrering med avlusare",
        "Description[tr]": "Hata ayıklayıcı tümleştirmesi sağlar",
        "Description[uk]": "Надає інтеграцію із засобом діагностики",
        "Description[x-test]": "xxProvides debugger integrationxx",
        "Description[zh_CN]": "提供调试器集成",
        "Name": "Kate Debugger",
        "Name[az]": "Kate sazlayıcısı",
        "Name[bg]": "Програма за трасиране на Kate",
        "Name[ca@valencia]": "Depurador de Kate",
        "Name[ca]": "Depurador del Kate",
        "Name[cs]": "Ladicí program Kate",
        "Name[en_GB]": "Kate Debugger",
        "Name[eo]": "Kate-sencimigilo",
        "Name[es]": "Depurador de Kate",
        "Name[eu]": "Kate araztailea",
        "Name[fi]": "Kate-virheenpaikannin",
        "Name[fr]": "Débogueur de Kate",
        "Name[gl]": "Depurador de Kate",
        "Name[ia]": "Cribrator (Debugger) de Kate",
        "Name[it]": "Debugger di Kate",
        "Name[ka]": "Kate-ის გამმართველი",
        "Name[ko]": "Kate 디버거",
        "Name[nl]": "Kate-debugger",
        "Name[pl]": "Debugger Kate",
        "Name[pt]": "Depurador do Kate",
        "Name[pt_BR]": "Depurador do Kate",
        "Name[ru]": "Отладчик Kate",
        "Name[sl]": "Kate razhroščevalnik",
        "Name[sv]": "Kate avlusare",
        "Name[tr]": "Kate Hata Ayıklayıcısı",
        "Name[uk]": "Зневадник Kate",
        "Name[x-test]": "xxKate Debuggerxx",
        "Name[zh_CN]": "Kate 调试器",
        "ServiceTypes": [
            "KTextEditor/Plugin"
        ]
    }
}
