{
    "KPlugin": {
        "Description": "Plugin for formatting code",
        "Description[az]": "Kodu formatlamaq üçün qoşma",
        "Description[bg]": "Приставка за форматиране на код",
        "Description[ca@valencia]": "Connector per a donar format al codi",
        "Description[ca]": "Connector per a donar format al codi",
        "Description[cs]": "Modul pro formátování kódu",
        "Description[el]": "Πρόσθετο για διαμόρφωση κώδικα",
        "Description[en_GB]": "Plugin for formatting code",
        "Description[eo]": "Kromaĵo por formatado de kodo",
        "Description[es]": "Complemento para formatear código",
        "Description[eu]": "Kodeari formatua emateko plugina",
        "Description[fi]": "Koodinmuotoiluliitännäinen",
        "Description[fr]": "Module externe pour le formatage du code",
        "Description[gl]": "Complemento para formatar código.",
        "Description[ia]": "Plugi per formattar codice",
        "Description[it]": "Estensione per la formattazione del codice",
        "Description[ka]": "დამატება კოდის ფორმატირებისთვის",
        "Description[ko]": "코드 형식 지정 플러그인",
        "Description[nl]": "Een plug-in voor het formatteren van code",
        "Description[pl]": "Wtyczka do formatowania kodu",
        "Description[pt]": "'Plugin' de formatação de código",
        "Description[ru]": "Подключаемый модуль для форматирования кода",
        "Description[sk]": "Zásuvný modul na formátovanie kódu",
        "Description[sl]": "Vtičnik za oblikovanje kode",
        "Description[sv]": "Insticksprogram för att formatera kod",
        "Description[tr]": "Kod biçimlendirme için eklenti",
        "Description[uk]": "Додаток для форматування коду",
        "Description[vi]": "Phần cài cắm để định dạng mã",
        "Description[x-test]": "xxPlugin for formatting codexx",
        "Description[zh_CN]": "格式化代码插件",
        "Name": "Formatting",
        "Name[az]": "Formatlama",
        "Name[bg]": "Форматиране",
        "Name[ca@valencia]": "Dona format",
        "Name[ca]": "Dona format",
        "Name[cs]": "Formátování",
        "Name[de]": "Formatierung",
        "Name[el]": "Διαμόρφωση",
        "Name[en_GB]": "Formatting",
        "Name[eo]": "Formatado",
        "Name[es]": "Formateo",
        "Name[eu]": "Formatua ematea",
        "Name[fi]": "Muotoilu",
        "Name[fr]": "Formatage en cours",
        "Name[gl]": "Formato",
        "Name[ia]": "Formattation",
        "Name[it]": "Formattazione",
        "Name[ka]": "ფორმატირება",
        "Name[ko]": "형식 지정",
        "Name[nl]": "Formatteren",
        "Name[pl]": "Formatowanie",
        "Name[pt]": "Formatação",
        "Name[pt_BR]": "Formatação",
        "Name[ru]": "Форматирование",
        "Name[sk]": "Formátovanie",
        "Name[sl]": "Oblikovanje",
        "Name[sv]": "Formatering",
        "Name[tr]": "Biçimlendirme",
        "Name[uk]": "Форматування",
        "Name[vi]": "Định dạng",
        "Name[x-test]": "xxFormattingxx",
        "Name[zh_CN]": "格式",
        "ServiceTypes": [
            "KTextEditor/Plugin"
        ]
    }
}
